isim.log
ISim log file
Running: D:\Computer-Architecture\TestBench_isim_beh.exe -intstyle ise -gui -tclbatch isim.cmd -wdb D:/Computer-Architecture/TestBench_isim_beh.wdb 
ISim P.20131013 (signature 0x7708f090)
WARNING: A WEBPACK license was found.
WARNING: Please use Xilinx License Configuration Manager to check out a full ISim license.
WARNING: ISim will run in Lite mode. Please refer to the ISim documentation for more information on the differences between the Lite and the Full version.
This is a Lite version of ISim.
Time resolution is 1 ps
# onerror resume
# wave add /
# run 1000 ns
Simulator is doing circuit initialization process.
WARNING: File Pipeline_test referenced on D:/Computer-Architecture/Instr_Memory.v at line 40 cannot be opened for reading. Please ensure that this file is available in the current working directory.Finished circuit initialization process.
Cycle           0   PC=         0  instr=00100000000000100000000000000100

---------------------------------Register-------------------------------------------------

r0=          0, r1=          0, r2=          0, r3=          0, r4=          0, r5=          0, r6=          0, r7=          0
 
r8=          0, r9=          0, r10=          0, r11=          0, r12=          0, r13=          0, r14=          0, r15=          0
 

-------------------------------Memory----------------------------------------------------

m0=          0, m1=          0, m2=          0, m3=          0, m4=          0, m5=          0, m6=          0, m7=          0

m8=          0, m9=          0, m10=          0, m11=          0, m12=          0, m13=          0, m14=          0, m15=          0

 
Cycle           1   PC=         0  instr=00100000000000100000000000000100

---------------------------------Register-------------------------------------------------

r0=          0, r1=          0, r2=          0, r3=          0, r4=          0, r5=          0, r6=          0, r7=          0
 
r8=          0, r9=          0, r10=          0, r11=          0, r12=          0, r13=          0, r14=          0, r15=          0
 

-------------------------------Memory----------------------------------------------------

m0=          0, m1=          0, m2=          0, m3=          0, m4=          0, m5=          0, m6=          0, m7=          0

m8=          0, m9=          0, m10=          0, m11=          0, m12=          0, m13=          0, m14=          0, m15=          0

 
Cycle           2   PC=         4  instr=00100000000000110000000000000001

---------------------------------Register-------------------------------------------------

r0=          x, r1=          0, r2=          0, r3=          0, r4=          0, r5=          0, r6=          0, r7=          0
 
r8=          0, r9=          0, r10=          0, r11=          0, r12=          0, r13=          0, r14=          0, r15=          0
 

-------------------------------Memory----------------------------------------------------

m0=          0, m1=          0, m2=          0, m3=          0, m4=          0, m5=          0, m6=          0, m7=          0

m8=          0, m9=          0, m10=          0, m11=          0, m12=          0, m13=          0, m14=          0, m15=          0

 
Cycle           3   PC=         8  instr=10101100000000010000000000000100

---------------------------------Register-------------------------------------------------

r0=          x, r1=          0, r2=          0, r3=          0, r4=          0, r5=          0, r6=          0, r7=          0
 
r8=          0, r9=          0, r10=          0, r11=          0, r12=          0, r13=          0, r14=          0, r15=          0
 

-------------------------------Memory----------------------------------------------------

m0=          0, m1=          0, m2=          0, m3=          0, m4=          0, m5=          0, m6=          0, m7=          0

m8=          0, m9=          0, m10=          0, m11=          0, m12=          0, m13=          0, m14=          0, m15=          0

 
Cycle           4   PC=        12  instr=00000000001000010010000000100000

---------------------------------Register-------------------------------------------------

r0=          x, r1=          0, r2=          0, r3=          0, r4=          0, r5=          0, r6=          0, r7=          0
 
r8=          0, r9=          0, r10=          0, r11=          0, r12=          0, r13=          0, r14=          0, r15=          0
 

-------------------------------Memory----------------------------------------------------

m0=          0, m1=          0, m2=          0, m3=          0, m4=          0, m5=          0, m6=          0, m7=          0

m8=          0, m9=          0, m10=          0, m11=          0, m12=          0, m13=          0, m14=          0, m15=          0

 
Cycle           5   PC=        16  instr=00000000001000100011000000100101

---------------------------------Register-------------------------------------------------

r0=          x, r1=          0, r2=          x, r3=          0, r4=          0, r5=          0, r6=          0, r7=          0
 
r8=          0, r9=          0, r10=          0, r11=          0, r12=          0, r13=          0, r14=          0, r15=          0
 

-------------------------------Memory----------------------------------------------------

m0=          0, m1=          0, m2=          0, m3=          0, m4=          0, m5=          0, m6=          0, m7=          0

m8=          0, m9=          0, m10=          0, m11=          0, m12=          0, m13=          0, m14=          0, m15=          0

 
Cycle           6   PC=        20  instr=00000000001000110011100000100100

---------------------------------Register-------------------------------------------------

r0=          x, r1=          0, r2=          x, r3=          x, r4=          0, r5=          0, r6=          0, r7=          0
 
r8=          0, r9=          0, r10=          0, r11=          0, r12=          0, r13=          0, r14=          0, r15=          0
 

-------------------------------Memory----------------------------------------------------

m0=          0, m1=          0, m2=          0, m3=          0, m4=          0, m5=          0, m6=          0, m7=          0

m8=          0, m9=          0, m10=          0, m11=          0, m12=          0, m13=          0, m14=          0, m15=          0

 
Cycle           7   PC=        24  instr=00000000100000100010100000100010

---------------------------------Register-------------------------------------------------

r0=          x, r1=          x, r2=          x, r3=          x, r4=          0, r5=          0, r6=          0, r7=          0
 
r8=          0, r9=          0, r10=          0, r11=          0, r12=          0, r13=          0, r14=          0, r15=          0
 

-------------------------------Memory----------------------------------------------------

m0=          0, m1=          0, m2=          0, m3=          0, m4=          0, m5=          0, m6=          0, m7=          0

m8=          0, m9=          0, m10=          0, m11=          0, m12=          0, m13=          0, m14=          0, m15=          0

 
Cycle           8   PC=        28  instr=00000000001000100100000000101010

---------------------------------Register-------------------------------------------------

r0=          x, r1=          x, r2=          x, r3=          x, r4=          x, r5=          0, r6=          0, r7=          0
 
r8=          0, r9=          0, r10=          0, r11=          0, r12=          0, r13=          0, r14=          0, r15=          0
 

-------------------------------Memory----------------------------------------------------

m0=          0, m1=          0, m2=          0, m3=          0, m4=          0, m5=          0, m6=          0, m7=          0

m8=          0, m9=          0, m10=          0, m11=          0, m12=          0, m13=          0, m14=          0, m15=          0

 
Cycle           9   PC=        32  instr=00010000001000101111111111110110

---------------------------------Register-------------------------------------------------

r0=          x, r1=          x, r2=          x, r3=          x, r4=          x, r5=          0, r6=          x, r7=          0
 
r8=          0, r9=          0, r10=          0, r11=          0, r12=          0, r13=          0, r14=          0, r15=          0
 

-------------------------------Memory----------------------------------------------------

m0=          0, m1=          0, m2=          0, m3=          0, m4=          0, m5=          0, m6=          0, m7=          0

m8=          0, m9=          0, m10=          0, m11=          0, m12=          0, m13=          0, m14=          0, m15=          0

 
Cycle          10   PC=        36  instr=10001100000010100000000000000100

---------------------------------Register-------------------------------------------------

r0=          x, r1=          x, r2=          x, r3=          x, r4=          x, r5=          0, r6=          x, r7=          0
 
r8=          0, r9=          0, r10=          0, r11=          0, r12=          0, r13=          0, r14=          0, r15=          0
 

-------------------------------Memory----------------------------------------------------

m0=          0, m1=          0, m2=          0, m3=          0, m4=          0, m5=          0, m6=          0, m7=          0

m8=          0, m9=          0, m10=          0, m11=          0, m12=          0, m13=          0, m14=          0, m15=          0

 
Cycle          11   PC=        40  instr=00000000000000000000000000000000

---------------------------------Register-------------------------------------------------

r0=          x, r1=          x, r2=          x, r3=          x, r4=          x, r5=          x, r6=          x, r7=          0
 
r8=          0, r9=          0, r10=          0, r11=          0, r12=          0, r13=          0, r14=          0, r15=          0
 

-------------------------------Memory----------------------------------------------------

m0=          0, m1=          0, m2=          0, m3=          0, m4=          0, m5=          0, m6=          0, m7=          0

m8=          0, m9=          0, m10=          0, m11=          0, m12=          0, m13=          0, m14=          0, m15=          0

 
Cycle          12   PC=        44  instr=00000000000000000000000000000000

---------------------------------Register-------------------------------------------------

r0=          x, r1=          x, r2=          x, r3=          x, r4=          x, r5=          x, r6=          x, r7=          0
 
r8=          x, r9=          0, r10=          0, r11=          0, r12=          0, r13=          0, r14=          0, r15=          0
 

-------------------------------Memory----------------------------------------------------

m0=          0, m1=          0, m2=          0, m3=          0, m4=          0, m5=          0, m6=          0, m7=          0

m8=          0, m9=          0, m10=          0, m11=          0, m12=          0, m13=          0, m14=          0, m15=          0

 
Cycle          13   PC=         x  instr=xxxxxxxxxxxxxxxxxxxxxxxxxxxxxxxx

---------------------------------Register-------------------------------------------------

r0=          x, r1=          x, r2=          x, r3=          x, r4=          x, r5=          x, r6=          x, r7=          0
 
r8=          x, r9=          0, r10=          0, r11=          0, r12=          0, r13=          0, r14=          0, r15=          0
 

-------------------------------Memory----------------------------------------------------

m0=          0, m1=          0, m2=          0, m3=          0, m4=          0, m5=          0, m6=          0, m7=          0

m8=          0, m9=          0, m10=          0, m11=          0, m12=          0, m13=          0, m14=          0, m15=          0

 
Cycle          14   PC=         x  instr=xxxxxxxxxxxxxxxxxxxxxxxxxxxxxxxx

---------------------------------Register-------------------------------------------------

r0=          x, r1=          x, r2=          x, r3=          x, r4=          x, r5=          x, r6=          x, r7=          0
 
r8=          x, r9=          0, r10=          0, r11=          0, r12=          0, r13=          0, r14=          0, r15=          0
 

-------------------------------Memory----------------------------------------------------

m0=          0, m1=          0, m2=          0, m3=          0, m4=          0, m5=          0, m6=          0, m7=          0

m8=          0, m9=          0, m10=          0, m11=          0, m12=          0, m13=          0, m14=          0, m15=          0

 
---------------------------------Register-------------------------------------------------

r0=          x, r1=          x, r2=          x, r3=          x, r4=          x, r5=          x, r6=          x, r7=          0
 
r8=          x, r9=          0, r10=          0, r11=          0, r12=          0, r13=          0, r14=          0, r15=          0
 

-------------------------------Memory----------------------------------------------------

m0=          0, m1=          0, m2=          0, m3=          0, m4=          0, m5=          0, m6=          0, m7=          0

m8=          0, m9=          0, m10=          0, m11=          0, m12=          0, m13=          0, m14=          0, m15=          0

 
Cycle          15   PC=         x  instr=xxxxxxxxxxxxxxxxxxxxxxxxxxxxxxxx

---------------------------------Register-------------------------------------------------

r0=          x, r1=          x, r2=          x, r3=          x, r4=          x, r5=          x, r6=          x, r7=          0
 
r8=          x, r9=          0, r10=          0, r11=          0, r12=          0, r13=          0, r14=          0, r15=          0
 

-------------------------------Memory----------------------------------------------------

m0=          0, m1=          0, m2=          0, m3=          0, m4=          0, m5=          0, m6=          0, m7=          0

m8=          0, m9=          0, m10=          0, m11=          0, m12=          0, m13=          0, m14=          0, m15=          0

 
Cycle          16   PC=         x  instr=xxxxxxxxxxxxxxxxxxxxxxxxxxxxxxxx

---------------------------------Register-------------------------------------------------

r0=          x, r1=          x, r2=          x, r3=          x, r4=          x, r5=          x, r6=          x, r7=          0
 
r8=          x, r9=          0, r10=          0, r11=          0, r12=          0, r13=          0, r14=          0, r15=          0
 

-------------------------------Memory----------------------------------------------------

m0=          0, m1=          0, m2=          0, m3=          0, m4=          0, m5=          0, m6=          0, m7=          0

m8=          0, m9=          0, m10=          0, m11=          0, m12=          0, m13=          0, m14=          0, m15=          0

 
Cycle          17   PC=         x  instr=xxxxxxxxxxxxxxxxxxxxxxxxxxxxxxxx

---------------------------------Register-------------------------------------------------

r0=          x, r1=          x, r2=          x, r3=          x, r4=          x, r5=          x, r6=          x, r7=          0
 
r8=          x, r9=          0, r10=          0, r11=          0, r12=          0, r13=          0, r14=          0, r15=          0
 

-------------------------------Memory----------------------------------------------------

m0=          0, m1=          0, m2=          0, m3=          0, m4=          0, m5=          0, m6=          0, m7=          0

m8=          0, m9=          0, m10=          0, m11=          0, m12=          0, m13=          0, m14=          0, m15=          0

 
Cycle          18   PC=         x  instr=xxxxxxxxxxxxxxxxxxxxxxxxxxxxxxxx

---------------------------------Register-------------------------------------------------

r0=          x, r1=          x, r2=          x, r3=          x, r4=          x, r5=          x, r6=          x, r7=          0
 
r8=          x, r9=          0, r10=          0, r11=          0, r12=          0, r13=          0, r14=          0, r15=          0
 

-------------------------------Memory----------------------------------------------------

m0=          0, m1=          0, m2=          0, m3=          0, m4=          0, m5=          0, m6=          0, m7=          0

m8=          0, m9=          0, m10=          0, m11=          0, m12=          0, m13=          0, m14=          0, m15=          0

 
Cycle          19   PC=         x  instr=xxxxxxxxxxxxxxxxxxxxxxxxxxxxxxxx

---------------------------------Register-------------------------------------------------

r0=          x, r1=          x, r2=          x, r3=          x, r4=          x, r5=          x, r6=          x, r7=          0
 
r8=          x, r9=          0, r10=          0, r11=          0, r12=          0, r13=          0, r14=          0, r15=          0
 

-------------------------------Memory----------------------------------------------------

m0=          0, m1=          0, m2=          0, m3=          0, m4=          0, m5=          0, m6=          0, m7=          0

m8=          0, m9=          0, m10=          0, m11=          0, m12=          0, m13=          0, m14=          0, m15=          0

 
Cycle          20   PC=         x  instr=xxxxxxxxxxxxxxxxxxxxxxxxxxxxxxxx

---------------------------------Register-------------------------------------------------

r0=          x, r1=          x, r2=          x, r3=          x, r4=          x, r5=          x, r6=          x, r7=          0
 
r8=          x, r9=          0, r10=          0, r11=          0, r12=          0, r13=          0, r14=          0, r15=          0
 

-------------------------------Memory----------------------------------------------------

m0=          0, m1=          0, m2=          0, m3=          0, m4=          0, m5=          0, m6=          0, m7=          0

m8=          0, m9=          0, m10=          0, m11=          0, m12=          0, m13=          0, m14=          0, m15=          0

 
Cycle          21   PC=         x  instr=xxxxxxxxxxxxxxxxxxxxxxxxxxxxxxxx

---------------------------------Register-------------------------------------------------

r0=          x, r1=          x, r2=          x, r3=          x, r4=          x, r5=          x, r6=          x, r7=          0
 
r8=          x, r9=          0, r10=          0, r11=          0, r12=          0, r13=          0, r14=          0, r15=          0
 

-------------------------------Memory----------------------------------------------------

m0=          0, m1=          0, m2=          0, m3=          0, m4=          0, m5=          0, m6=          0, m7=          0

m8=          0, m9=          0, m10=          0, m11=          0, m12=          0, m13=          0, m14=          0, m15=          0

 
Cycle          22   PC=         x  instr=xxxxxxxxxxxxxxxxxxxxxxxxxxxxxxxx

---------------------------------Register-------------------------------------------------

r0=          x, r1=          x, r2=          x, r3=          x, r4=          x, r5=          x, r6=          x, r7=          0
 
r8=          x, r9=          0, r10=          0, r11=          0, r12=          0, r13=          0, r14=          0, r15=          0
 

-------------------------------Memory----------------------------------------------------

m0=          0, m1=          0, m2=          0, m3=          0, m4=          0, m5=          0, m6=          0, m7=          0

m8=          0, m9=          0, m10=          0, m11=          0, m12=          0, m13=          0, m14=          0, m15=          0

 
Cycle          23   PC=         x  instr=xxxxxxxxxxxxxxxxxxxxxxxxxxxxxxxx

---------------------------------Register-------------------------------------------------

r0=          x, r1=          x, r2=          x, r3=          x, r4=          x, r5=          x, r6=          x, r7=          0
 
r8=          x, r9=          0, r10=          0, r11=          0, r12=          0, r13=          0, r14=          0, r15=          0
 

-------------------------------Memory----------------------------------------------------

m0=          0, m1=          0, m2=          0, m3=          0, m4=          0, m5=          0, m6=          0, m7=          0

m8=          0, m9=          0, m10=          0, m11=          0, m12=          0, m13=          0, m14=          0, m15=          0

 
Cycle          24   PC=         x  instr=xxxxxxxxxxxxxxxxxxxxxxxxxxxxxxxx

---------------------------------Register-------------------------------------------------

r0=          x, r1=          x, r2=          x, r3=          x, r4=          x, r5=          x, r6=          x, r7=          0
 
r8=          x, r9=          0, r10=          0, r11=          0, r12=          0, r13=          0, r14=          0, r15=          0
 

-------------------------------Memory----------------------------------------------------

m0=          0, m1=          0, m2=          0, m3=          0, m4=          0, m5=          0, m6=          0, m7=          0

m8=          0, m9=          0, m10=          0, m11=          0, m12=          0, m13=          0, m14=          0, m15=          0

 
Cycle          25   PC=         x  instr=xxxxxxxxxxxxxxxxxxxxxxxxxxxxxxxx

---------------------------------Register-------------------------------------------------

r0=          x, r1=          x, r2=          x, r3=          x, r4=          x, r5=          x, r6=          x, r7=          0
 
r8=          x, r9=          0, r10=          0, r11=          0, r12=          0, r13=          0, r14=          0, r15=          0
 

-------------------------------Memory----------------------------------------------------

m0=          0, m1=          0, m2=          0, m3=          0, m4=          0, m5=          0, m6=          0, m7=          0

m8=          0, m9=          0, m10=          0, m11=          0, m12=          0, m13=          0, m14=          0, m15=          0

 
Cycle          26   PC=         x  instr=xxxxxxxxxxxxxxxxxxxxxxxxxxxxxxxx

---------------------------------Register-------------------------------------------------

r0=          x, r1=          x, r2=          x, r3=          x, r4=          x, r5=          x, r6=          x, r7=          0
 
r8=          x, r9=          0, r10=          0, r11=          0, r12=          0, r13=          0, r14=          0, r15=          0
 

-------------------------------Memory----------------------------------------------------

m0=          0, m1=          0, m2=          0, m3=          0, m4=          0, m5=          0, m6=          0, m7=          0

m8=          0, m9=          0, m10=          0, m11=          0, m12=          0, m13=          0, m14=          0, m15=          0

 
Cycle          27   PC=         x  instr=xxxxxxxxxxxxxxxxxxxxxxxxxxxxxxxx

---------------------------------Register-------------------------------------------------

r0=          x, r1=          x, r2=          x, r3=          x, r4=          x, r5=          x, r6=          x, r7=          0
 
r8=          x, r9=          0, r10=          0, r11=          0, r12=          0, r13=          0, r14=          0, r15=          0
 

-------------------------------Memory----------------------------------------------------

m0=          0, m1=          0, m2=          0, m3=          0, m4=          0, m5=          0, m6=          0, m7=          0

m8=          0, m9=          0, m10=          0, m11=          0, m12=          0, m13=          0, m14=          0, m15=          0

 
Cycle          28   PC=         x  instr=xxxxxxxxxxxxxxxxxxxxxxxxxxxxxxxx

---------------------------------Register-------------------------------------------------

r0=          x, r1=          x, r2=          x, r3=          x, r4=          x, r5=          x, r6=          x, r7=          0
 
r8=          x, r9=          0, r10=          0, r11=          0, r12=          0, r13=          0, r14=          0, r15=          0
 

-------------------------------Memory----------------------------------------------------

m0=          0, m1=          0, m2=          0, m3=          0, m4=          0, m5=          0, m6=          0, m7=          0

m8=          0, m9=          0, m10=          0, m11=          0, m12=          0, m13=          0, m14=          0, m15=          0

 
Cycle          29   PC=         x  instr=xxxxxxxxxxxxxxxxxxxxxxxxxxxxxxxx

---------------------------------Register-------------------------------------------------

r0=          x, r1=          x, r2=          x, r3=          x, r4=          x, r5=          x, r6=          x, r7=          0
 
r8=          x, r9=          0, r10=          0, r11=          0, r12=          0, r13=          0, r14=          0, r15=          0
 

-------------------------------Memory----------------------------------------------------

m0=          0, m1=          0, m2=          0, m3=          0, m4=          0, m5=          0, m6=          0, m7=          0

m8=          0, m9=          0, m10=          0, m11=          0, m12=          0, m13=          0, m14=          0, m15=          0

 
Cycle          30   PC=         x  instr=xxxxxxxxxxxxxxxxxxxxxxxxxxxxxxxx

---------------------------------Register-------------------------------------------------

r0=          x, r1=          x, r2=          x, r3=          x, r4=          x, r5=          x, r6=          x, r7=          0
 
r8=          x, r9=          0, r10=          0, r11=          0, r12=          0, r13=          0, r14=          0, r15=          0
 

-------------------------------Memory----------------------------------------------------

m0=          0, m1=          0, m2=          0, m3=          0, m4=          0, m5=          0, m6=          0, m7=          0

m8=          0, m9=          0, m10=          0, m11=          0, m12=          0, m13=          0, m14=          0, m15=          0

 
Stopped at time : 310 ns :  in File "D:/Computer-Architecture/TestBench.v" Line 43 
